module dungeon-assistant

go 1.22.2

require (
	github.com/go-sql-driver/mysql v1.8.1
	github.com/gorilla/mux v1.8.1
	github.com/joho/godotenv v1.5.1
)

require filippo.io/edwards25519 v1.1.0 // indirect
